^C:\Users\skc08\Documents\Intel\OpenVINO\omz_demos_build\ie_cpu_extension\ie_cpu_extension.vcxproj
C:\Users\skc08\Documents\Intel\OpenVINO\omz_demos_build\intel64\Release\cpu_extension.lib
C:\Users\skc08\Documents\Intel\OpenVINO\omz_demos_build\intel64\Release\cpu_extension.exp
